<mxfile host="Electron" modified="2024-01-05T14:42:22.782Z" agent="Mozilla/5.0 (Windows NT 10.0; Win64; x64) AppleWebKit/537.36 (KHTML, like Gecko) draw.io/21.6.8 Chrome/114.0.5735.289 Electron/25.5.0 Safari/537.36" etag="fwl03jXn-2AqgeT9go71" version="21.6.8" type="device">
  <diagram name="Page-1" id="vCN_uld8yGHfXsynalUb">
    <mxGraphModel dx="2049" dy="1194" grid="0" gridSize="10" guides="1" tooltips="1" connect="1" arrows="1" fold="1" page="1" pageScale="1" pageWidth="1169" pageHeight="827" math="0" shadow="0">
      <root>
        <mxCell id="0" />
        <mxCell id="1" parent="0" />
        <mxCell id="NoFFq3bospTpivUYa4fl-513" value="" style="group" parent="1" vertex="1" connectable="0">
          <mxGeometry x="145.49999999999994" y="6" width="768.25" height="816" as="geometry" />
        </mxCell>
        <mxCell id="NoFFq3bospTpivUYa4fl-423" value="" style="group;rotation=90;" parent="NoFFq3bospTpivUYa4fl-513" vertex="1" connectable="0">
          <mxGeometry x="398.50000000000006" y="85" width="170" height="60" as="geometry" />
        </mxCell>
        <mxCell id="NoFFq3bospTpivUYa4fl-414" value="Push Button" style="rounded=0;whiteSpace=wrap;html=1;fillColor=none;verticalAlign=top;rotation=90;" parent="NoFFq3bospTpivUYa4fl-423" vertex="1">
          <mxGeometry width="170" height="60" as="geometry" />
        </mxCell>
        <mxCell id="NoFFq3bospTpivUYa4fl-413" value="" style="html=1;shape=mxgraph.electrical.electro-mechanical.singleSwitch;aspect=fixed;elSwitchState=on;rotation=90;" parent="NoFFq3bospTpivUYa4fl-423" vertex="1">
          <mxGeometry x="20" y="13" width="130" height="34.67" as="geometry" />
        </mxCell>
        <mxCell id="NoFFq3bospTpivUYa4fl-475" value="" style="group;rotation=90;" parent="NoFFq3bospTpivUYa4fl-513" vertex="1" connectable="0">
          <mxGeometry x="570.5" y="471" width="210" height="185.5" as="geometry" />
        </mxCell>
        <mxCell id="NoFFq3bospTpivUYa4fl-277" value="" style="group;rotation=0;" parent="NoFFq3bospTpivUYa4fl-475" vertex="1" connectable="0">
          <mxGeometry x="87" y="-63" width="60" height="210" as="geometry" />
        </mxCell>
        <mxCell id="NoFFq3bospTpivUYa4fl-250" value="" style="ellipse;whiteSpace=wrap;html=1;aspect=fixed;rotation=0;" parent="NoFFq3bospTpivUYa4fl-277" vertex="1">
          <mxGeometry x="4" y="4" width="9" height="9" as="geometry" />
        </mxCell>
        <mxCell id="NoFFq3bospTpivUYa4fl-251" value="" style="ellipse;whiteSpace=wrap;html=1;aspect=fixed;rotation=0;" parent="NoFFq3bospTpivUYa4fl-277" vertex="1">
          <mxGeometry x="4" y="31" width="9" height="9" as="geometry" />
        </mxCell>
        <mxCell id="NoFFq3bospTpivUYa4fl-252" value="" style="ellipse;whiteSpace=wrap;html=1;aspect=fixed;rotation=0;" parent="NoFFq3bospTpivUYa4fl-277" vertex="1">
          <mxGeometry x="4" y="56" width="9" height="9" as="geometry" />
        </mxCell>
        <mxCell id="NoFFq3bospTpivUYa4fl-253" value="" style="ellipse;whiteSpace=wrap;html=1;aspect=fixed;rotation=0;" parent="NoFFq3bospTpivUYa4fl-277" vertex="1">
          <mxGeometry x="4" y="80" width="9" height="9" as="geometry" />
        </mxCell>
        <mxCell id="NoFFq3bospTpivUYa4fl-254" value="" style="ellipse;whiteSpace=wrap;html=1;aspect=fixed;rotation=0;" parent="NoFFq3bospTpivUYa4fl-277" vertex="1">
          <mxGeometry x="4" y="107" width="9" height="9" as="geometry" />
        </mxCell>
        <mxCell id="NoFFq3bospTpivUYa4fl-255" value="" style="ellipse;whiteSpace=wrap;html=1;aspect=fixed;rotation=0;" parent="NoFFq3bospTpivUYa4fl-277" vertex="1">
          <mxGeometry x="4" y="134" width="9" height="9" as="geometry" />
        </mxCell>
        <mxCell id="NoFFq3bospTpivUYa4fl-256" value="" style="ellipse;whiteSpace=wrap;html=1;aspect=fixed;rotation=0;" parent="NoFFq3bospTpivUYa4fl-277" vertex="1">
          <mxGeometry x="4" y="161" width="9" height="9" as="geometry" />
        </mxCell>
        <mxCell id="NoFFq3bospTpivUYa4fl-257" value="" style="ellipse;whiteSpace=wrap;html=1;aspect=fixed;rotation=0;" parent="NoFFq3bospTpivUYa4fl-277" vertex="1">
          <mxGeometry x="4" y="188" width="9" height="9" as="geometry" />
        </mxCell>
        <mxCell id="NoFFq3bospTpivUYa4fl-259" value="+CONTROL" style="text;html=1;strokeColor=none;fillColor=none;align=left;verticalAlign=middle;whiteSpace=wrap;rounded=0;rotation=0;horizontal=1;" parent="NoFFq3bospTpivUYa4fl-277" vertex="1">
          <mxGeometry x="30" y="33" width="30" height="13.404255319148936" as="geometry" />
        </mxCell>
        <mxCell id="NoFFq3bospTpivUYa4fl-260" value="PUSH" style="text;html=1;strokeColor=none;fillColor=none;align=left;verticalAlign=middle;whiteSpace=wrap;rounded=0;rotation=0;horizontal=1;" parent="NoFFq3bospTpivUYa4fl-277" vertex="1">
          <mxGeometry x="30" y="58" width="30" height="13.404255319148936" as="geometry" />
        </mxCell>
        <mxCell id="NoFFq3bospTpivUYa4fl-261" value="GND" style="text;html=1;strokeColor=none;fillColor=none;align=left;verticalAlign=middle;whiteSpace=wrap;rounded=0;rotation=0;horizontal=1;" parent="NoFFq3bospTpivUYa4fl-277" vertex="1">
          <mxGeometry x="30" y="82" width="30" height="13.404255319148936" as="geometry" />
        </mxCell>
        <mxCell id="NoFFq3bospTpivUYa4fl-262" value="+12V" style="text;html=1;strokeColor=none;fillColor=none;align=left;verticalAlign=middle;whiteSpace=wrap;rounded=0;rotation=0;horizontal=1;" parent="NoFFq3bospTpivUYa4fl-277" vertex="1">
          <mxGeometry x="30" y="109" width="30" height="13.404255319148936" as="geometry" />
        </mxCell>
        <mxCell id="NoFFq3bospTpivUYa4fl-263" value="COM" style="text;html=1;strokeColor=none;fillColor=none;align=left;verticalAlign=middle;whiteSpace=wrap;rounded=0;rotation=0;horizontal=1;" parent="NoFFq3bospTpivUYa4fl-277" vertex="1">
          <mxGeometry x="30" y="136" width="30" height="13.404255319148936" as="geometry" />
        </mxCell>
        <mxCell id="NoFFq3bospTpivUYa4fl-264" value="NC" style="text;html=1;strokeColor=none;fillColor=none;align=left;verticalAlign=middle;whiteSpace=wrap;rounded=0;rotation=0;horizontal=1;" parent="NoFFq3bospTpivUYa4fl-277" vertex="1">
          <mxGeometry x="30" y="163" width="30" height="13.404255319148936" as="geometry" />
        </mxCell>
        <mxCell id="NoFFq3bospTpivUYa4fl-265" value="NO" style="text;html=1;strokeColor=none;fillColor=none;align=left;verticalAlign=middle;whiteSpace=wrap;rounded=0;rotation=0;horizontal=1;" parent="NoFFq3bospTpivUYa4fl-277" vertex="1">
          <mxGeometry x="30" y="190" width="30" height="13.404255319148936" as="geometry" />
        </mxCell>
        <mxCell id="NoFFq3bospTpivUYa4fl-266" value="" style="endArrow=none;html=1;rounded=0;" parent="NoFFq3bospTpivUYa4fl-277" edge="1">
          <mxGeometry width="50" height="50" relative="1" as="geometry">
            <mxPoint x="26" y="210" as="sourcePoint" />
            <mxPoint x="26" as="targetPoint" />
          </mxGeometry>
        </mxCell>
        <mxCell id="NoFFq3bospTpivUYa4fl-267" value="" style="endArrow=none;html=1;rounded=0;" parent="NoFFq3bospTpivUYa4fl-277" edge="1">
          <mxGeometry width="50" height="50" relative="1" as="geometry">
            <mxPoint y="210" as="sourcePoint" />
            <mxPoint as="targetPoint" />
          </mxGeometry>
        </mxCell>
        <mxCell id="NoFFq3bospTpivUYa4fl-268" value="" style="endArrow=none;html=1;rounded=0;" parent="NoFFq3bospTpivUYa4fl-277" edge="1">
          <mxGeometry width="50" height="50" relative="1" as="geometry">
            <mxPoint y="210" as="sourcePoint" />
            <mxPoint x="26" y="210" as="targetPoint" />
          </mxGeometry>
        </mxCell>
        <mxCell id="NoFFq3bospTpivUYa4fl-269" value="" style="endArrow=none;html=1;rounded=0;" parent="NoFFq3bospTpivUYa4fl-277" edge="1">
          <mxGeometry width="50" height="50" relative="1" as="geometry">
            <mxPoint as="sourcePoint" />
            <mxPoint x="26" as="targetPoint" />
          </mxGeometry>
        </mxCell>
        <mxCell id="NoFFq3bospTpivUYa4fl-271" value="MCONTROL" style="text;html=1;strokeColor=none;fillColor=none;align=left;verticalAlign=middle;whiteSpace=wrap;rounded=0;rotation=0;horizontal=1;" parent="NoFFq3bospTpivUYa4fl-277" vertex="1">
          <mxGeometry x="30" y="6" width="30" height="13.404255319148936" as="geometry" />
        </mxCell>
        <mxCell id="NoFFq3bospTpivUYa4fl-424" value="" style="shape=waypoint;sketch=0;fillStyle=solid;size=6;pointerEvents=1;points=[];fillColor=none;resizable=0;rotatable=0;perimeter=centerPerimeter;snapToPoint=1;rotation=90;" parent="NoFFq3bospTpivUYa4fl-475" vertex="1">
          <mxGeometry x="63" y="-13" width="20" height="20" as="geometry" />
        </mxCell>
        <mxCell id="NoFFq3bospTpivUYa4fl-425" value="" style="shape=waypoint;sketch=0;fillStyle=solid;size=6;pointerEvents=1;points=[];fillColor=none;resizable=0;rotatable=0;perimeter=centerPerimeter;snapToPoint=1;rotation=90;" parent="NoFFq3bospTpivUYa4fl-475" vertex="1">
          <mxGeometry x="63" y="-38" width="20" height="20" as="geometry" />
        </mxCell>
        <mxCell id="NoFFq3bospTpivUYa4fl-426" value="" style="shape=waypoint;sketch=0;size=6;pointerEvents=1;points=[];fillColor=none;resizable=0;rotatable=0;perimeter=centerPerimeter;snapToPoint=1;rotation=90;" parent="NoFFq3bospTpivUYa4fl-475" vertex="1">
          <mxGeometry x="63" y="12" width="20" height="20" as="geometry" />
        </mxCell>
        <mxCell id="NoFFq3bospTpivUYa4fl-427" value="" style="shape=waypoint;sketch=0;fillStyle=solid;size=6;pointerEvents=1;points=[];fillColor=none;resizable=0;rotatable=0;perimeter=centerPerimeter;snapToPoint=1;rotation=90;" parent="NoFFq3bospTpivUYa4fl-475" vertex="1">
          <mxGeometry x="63" y="66" width="20" height="20" as="geometry" />
        </mxCell>
        <mxCell id="NoFFq3bospTpivUYa4fl-428" value="" style="shape=waypoint;sketch=0;fillStyle=solid;size=6;pointerEvents=1;points=[];fillColor=none;resizable=0;rotatable=0;perimeter=centerPerimeter;snapToPoint=1;rotation=90;" parent="NoFFq3bospTpivUYa4fl-475" vertex="1">
          <mxGeometry x="63" y="39" width="20" height="20" as="geometry" />
        </mxCell>
        <mxCell id="NoFFq3bospTpivUYa4fl-429" value="" style="shape=waypoint;sketch=0;size=6;pointerEvents=1;points=[];fillColor=none;resizable=0;rotatable=0;perimeter=centerPerimeter;snapToPoint=1;rotation=90;" parent="NoFFq3bospTpivUYa4fl-475" vertex="1">
          <mxGeometry x="63" y="94" width="20" height="20" as="geometry" />
        </mxCell>
        <mxCell id="NoFFq3bospTpivUYa4fl-430" value="" style="shape=waypoint;sketch=0;size=6;pointerEvents=1;points=[];fillColor=none;resizable=0;rotatable=0;perimeter=centerPerimeter;snapToPoint=1;rotation=90;" parent="NoFFq3bospTpivUYa4fl-475" vertex="1">
          <mxGeometry x="63" y="122" width="20" height="20" as="geometry" />
        </mxCell>
        <mxCell id="NoFFq3bospTpivUYa4fl-431" value="" style="shape=waypoint;sketch=0;size=6;pointerEvents=1;points=[];fillColor=none;resizable=0;rotatable=0;perimeter=centerPerimeter;snapToPoint=1;rotation=90;" parent="NoFFq3bospTpivUYa4fl-475" vertex="1">
          <mxGeometry x="63" y="-63" width="20" height="20" as="geometry" />
        </mxCell>
        <mxCell id="NoFFq3bospTpivUYa4fl-504" value="Access Control Power Supply" style="rounded=0;whiteSpace=wrap;html=1;verticalAlign=bottom;fillColor=none;" parent="NoFFq3bospTpivUYa4fl-475" vertex="1">
          <mxGeometry x="55" y="-87.5" width="147" height="273" as="geometry" />
        </mxCell>
        <mxCell id="NoFFq3bospTpivUYa4fl-476" style="edgeStyle=orthogonalEdgeStyle;rounded=0;orthogonalLoop=1;jettySize=auto;html=1;endArrow=none;endFill=0;strokeColor=#782b2b;" parent="NoFFq3bospTpivUYa4fl-513" source="NoFFq3bospTpivUYa4fl-468" target="NoFFq3bospTpivUYa4fl-429" edge="1">
          <mxGeometry relative="1" as="geometry">
            <Array as="points">
              <mxPoint x="503.50000000000006" y="776" />
              <mxPoint x="503.50000000000006" y="575" />
            </Array>
          </mxGeometry>
        </mxCell>
        <mxCell id="NoFFq3bospTpivUYa4fl-479" style="edgeStyle=orthogonalEdgeStyle;rounded=0;orthogonalLoop=1;jettySize=auto;html=1;entryX=1;entryY=0.8;entryDx=0;entryDy=0;endArrow=none;endFill=0;" parent="NoFFq3bospTpivUYa4fl-513" source="NoFFq3bospTpivUYa4fl-498" target="NoFFq3bospTpivUYa4fl-413" edge="1">
          <mxGeometry relative="1" as="geometry">
            <Array as="points" />
          </mxGeometry>
        </mxCell>
        <mxCell id="NoFFq3bospTpivUYa4fl-480" style="edgeStyle=orthogonalEdgeStyle;rounded=0;orthogonalLoop=1;jettySize=auto;html=1;entryX=0;entryY=0.8;entryDx=0;entryDy=0;endArrow=none;endFill=0;" parent="NoFFq3bospTpivUYa4fl-513" source="NoFFq3bospTpivUYa4fl-488" target="NoFFq3bospTpivUYa4fl-413" edge="1">
          <mxGeometry relative="1" as="geometry">
            <Array as="points">
              <mxPoint x="616" />
              <mxPoint x="473.00000000000006" />
            </Array>
          </mxGeometry>
        </mxCell>
        <mxCell id="NoFFq3bospTpivUYa4fl-481" style="edgeStyle=orthogonalEdgeStyle;rounded=0;orthogonalLoop=1;jettySize=auto;html=1;entryX=0.859;entryY=0.191;entryDx=0;entryDy=0;entryPerimeter=0;endArrow=none;endFill=0;strokeColor=#742f2f;" parent="NoFFq3bospTpivUYa4fl-513" source="NoFFq3bospTpivUYa4fl-428" target="NoFFq3bospTpivUYa4fl-466" edge="1">
          <mxGeometry relative="1" as="geometry">
            <Array as="points">
              <mxPoint x="578.5" y="520" />
              <mxPoint x="578.5" y="345" />
            </Array>
          </mxGeometry>
        </mxCell>
        <mxCell id="NoFFq3bospTpivUYa4fl-493" value="" style="edgeStyle=orthogonalEdgeStyle;rounded=0;orthogonalLoop=1;jettySize=auto;html=1;entryDx=0;entryDy=0;endArrow=none;endFill=0;" parent="NoFFq3bospTpivUYa4fl-513" source="NoFFq3bospTpivUYa4fl-424" target="NoFFq3bospTpivUYa4fl-488" edge="1">
          <mxGeometry relative="1" as="geometry">
            <mxPoint x="643.5" y="468" as="sourcePoint" />
            <mxPoint x="474.50000000000006" y="54" as="targetPoint" />
            <Array as="points">
              <mxPoint x="615.5" y="468" />
            </Array>
          </mxGeometry>
        </mxCell>
        <mxCell id="NoFFq3bospTpivUYa4fl-488" value="" style="shape=waypoint;sketch=0;size=6;pointerEvents=1;points=[];fillColor=none;resizable=0;rotatable=0;perimeter=centerPerimeter;snapToPoint=1;rotation=90;" parent="NoFFq3bospTpivUYa4fl-513" vertex="1">
          <mxGeometry x="605.5" y="458" width="20" height="20" as="geometry" />
        </mxCell>
        <mxCell id="NoFFq3bospTpivUYa4fl-502" value="" style="edgeStyle=orthogonalEdgeStyle;rounded=0;orthogonalLoop=1;jettySize=auto;html=1;entryDx=0;entryDy=0;endArrow=none;endFill=0;" parent="NoFFq3bospTpivUYa4fl-513" source="NoFFq3bospTpivUYa4fl-426" target="NoFFq3bospTpivUYa4fl-498" edge="1">
          <mxGeometry relative="1" as="geometry">
            <mxPoint x="643.5" y="493" as="sourcePoint" />
            <mxPoint x="474.50000000000006" y="184" as="targetPoint" />
            <Array as="points">
              <mxPoint x="600" y="493" />
              <mxPoint x="600" y="375" />
            </Array>
          </mxGeometry>
        </mxCell>
        <mxCell id="NoFFq3bospTpivUYa4fl-498" value="" style="shape=waypoint;sketch=0;size=6;pointerEvents=1;points=[];fillColor=none;resizable=0;rotatable=0;perimeter=centerPerimeter;snapToPoint=1;" parent="NoFFq3bospTpivUYa4fl-513" vertex="1">
          <mxGeometry x="462.50000000000006" y="365" width="20" height="20" as="geometry" />
        </mxCell>
        <mxCell id="NoFFq3bospTpivUYa4fl-440" value="" style="shape=waypoint;sketch=0;fillStyle=solid;size=6;pointerEvents=1;points=[];fillColor=none;resizable=0;rotatable=0;perimeter=centerPerimeter;snapToPoint=1;rotation=90;" parent="NoFFq3bospTpivUYa4fl-513" vertex="1">
          <mxGeometry x="314.50000000000006" y="500" width="20" height="20" as="geometry" />
        </mxCell>
        <mxCell id="NoFFq3bospTpivUYa4fl-441" value="" style="shape=waypoint;sketch=0;fillStyle=solid;size=6;pointerEvents=1;points=[];fillColor=none;resizable=0;rotatable=0;perimeter=centerPerimeter;snapToPoint=1;rotation=90;" parent="NoFFq3bospTpivUYa4fl-513" vertex="1">
          <mxGeometry x="314.50000000000006" y="479" width="20" height="20" as="geometry" />
        </mxCell>
        <mxCell id="NoFFq3bospTpivUYa4fl-442" value="" style="shape=waypoint;sketch=0;size=6;pointerEvents=1;points=[];fillColor=none;resizable=0;rotatable=0;perimeter=centerPerimeter;snapToPoint=1;rotation=90;" parent="NoFFq3bospTpivUYa4fl-513" vertex="1">
          <mxGeometry x="314.50000000000006" y="523" width="20" height="20" as="geometry" />
        </mxCell>
        <mxCell id="NoFFq3bospTpivUYa4fl-443" value="" style="shape=waypoint;sketch=0;fillStyle=solid;size=6;pointerEvents=1;points=[];fillColor=none;resizable=0;rotatable=0;perimeter=centerPerimeter;snapToPoint=1;rotation=90;" parent="NoFFq3bospTpivUYa4fl-513" vertex="1">
          <mxGeometry x="314.50000000000006" y="563" width="20" height="20" as="geometry" />
        </mxCell>
        <mxCell id="NoFFq3bospTpivUYa4fl-444" value="" style="shape=waypoint;sketch=0;fillStyle=solid;size=6;pointerEvents=1;points=[];fillColor=none;resizable=0;rotatable=0;perimeter=centerPerimeter;snapToPoint=1;rotation=90;" parent="NoFFq3bospTpivUYa4fl-513" vertex="1">
          <mxGeometry x="314.50000000000006" y="543" width="20" height="20" as="geometry" />
        </mxCell>
        <mxCell id="NoFFq3bospTpivUYa4fl-445" value="" style="shape=waypoint;sketch=0;size=6;pointerEvents=1;points=[];fillColor=none;resizable=0;rotatable=0;perimeter=centerPerimeter;snapToPoint=1;rotation=90;" parent="NoFFq3bospTpivUYa4fl-513" vertex="1">
          <mxGeometry x="314.50000000000006" y="583" width="20" height="20" as="geometry" />
        </mxCell>
        <mxCell id="NoFFq3bospTpivUYa4fl-446" value="" style="shape=waypoint;sketch=0;size=6;pointerEvents=1;points=[];fillColor=none;resizable=0;rotatable=0;perimeter=centerPerimeter;snapToPoint=1;rotation=90;" parent="NoFFq3bospTpivUYa4fl-513" vertex="1">
          <mxGeometry x="314.50000000000006" y="603" width="20" height="20" as="geometry" />
        </mxCell>
        <mxCell id="NoFFq3bospTpivUYa4fl-447" value="" style="shape=waypoint;sketch=0;size=6;pointerEvents=1;points=[];fillColor=none;resizable=0;rotatable=0;perimeter=centerPerimeter;snapToPoint=1;rotation=90;" parent="NoFFq3bospTpivUYa4fl-513" vertex="1">
          <mxGeometry x="314.50000000000006" y="459" width="20" height="20" as="geometry" />
        </mxCell>
        <mxCell id="NoFFq3bospTpivUYa4fl-494" style="rounded=0;orthogonalLoop=1;jettySize=auto;html=1;endArrow=none;endFill=0;edgeStyle=orthogonalEdgeStyle;" parent="NoFFq3bospTpivUYa4fl-513" source="NoFFq3bospTpivUYa4fl-488" target="NoFFq3bospTpivUYa4fl-443" edge="1">
          <mxGeometry relative="1" as="geometry">
            <Array as="points">
              <mxPoint x="478.00000000000006" y="468" />
              <mxPoint x="478.00000000000006" y="573" />
            </Array>
          </mxGeometry>
        </mxCell>
        <mxCell id="NoFFq3bospTpivUYa4fl-448" value="" style="endArrow=none;dashed=1;html=1;dashPattern=1 3;strokeWidth=2;rounded=0;" parent="NoFFq3bospTpivUYa4fl-513" edge="1">
          <mxGeometry width="50" height="50" relative="1" as="geometry">
            <mxPoint x="273.50000000000006" y="424" as="sourcePoint" />
            <mxPoint x="315.50000000000006" y="424" as="targetPoint" />
          </mxGeometry>
        </mxCell>
        <mxCell id="NoFFq3bospTpivUYa4fl-449" value="" style="endArrow=none;dashed=1;html=1;dashPattern=1 3;strokeWidth=2;rounded=0;" parent="NoFFq3bospTpivUYa4fl-513" edge="1">
          <mxGeometry width="50" height="50" relative="1" as="geometry">
            <mxPoint x="272.50000000000006" y="448" as="sourcePoint" />
            <mxPoint x="315.50000000000006" y="446" as="targetPoint" />
          </mxGeometry>
        </mxCell>
        <mxCell id="NoFFq3bospTpivUYa4fl-450" value="" style="endArrow=none;dashed=1;html=1;dashPattern=1 3;strokeWidth=2;rounded=0;" parent="NoFFq3bospTpivUYa4fl-513" edge="1">
          <mxGeometry width="50" height="50" relative="1" as="geometry">
            <mxPoint x="264.50000000000006" y="489" as="sourcePoint" />
            <mxPoint x="315.50000000000006" y="489" as="targetPoint" />
          </mxGeometry>
        </mxCell>
        <mxCell id="NoFFq3bospTpivUYa4fl-451" value="" style="endArrow=none;dashed=1;html=1;dashPattern=1 3;strokeWidth=2;rounded=0;" parent="NoFFq3bospTpivUYa4fl-513" edge="1">
          <mxGeometry width="50" height="50" relative="1" as="geometry">
            <mxPoint x="265.50000000000006" y="510" as="sourcePoint" />
            <mxPoint x="316.50000000000006" y="508" as="targetPoint" />
          </mxGeometry>
        </mxCell>
        <mxCell id="NoFFq3bospTpivUYa4fl-452" value="" style="endArrow=none;dashed=1;html=1;dashPattern=1 3;strokeWidth=2;rounded=0;" parent="NoFFq3bospTpivUYa4fl-513" edge="1">
          <mxGeometry width="50" height="50" relative="1" as="geometry">
            <mxPoint x="295.50000000000006" y="530" as="sourcePoint" />
            <mxPoint x="316.50000000000006" y="530" as="targetPoint" />
          </mxGeometry>
        </mxCell>
        <mxCell id="NoFFq3bospTpivUYa4fl-453" value="" style="endArrow=none;dashed=1;html=1;dashPattern=1 3;strokeWidth=2;rounded=0;" parent="NoFFq3bospTpivUYa4fl-513" edge="1">
          <mxGeometry width="50" height="50" relative="1" as="geometry">
            <mxPoint x="287.50000000000006" y="615" as="sourcePoint" />
            <mxPoint x="312.50000000000006" y="615" as="targetPoint" />
          </mxGeometry>
        </mxCell>
        <mxCell id="NoFFq3bospTpivUYa4fl-455" value="" style="endArrow=none;dashed=1;html=1;dashPattern=1 3;strokeWidth=2;rounded=0;" parent="NoFFq3bospTpivUYa4fl-513" edge="1">
          <mxGeometry width="50" height="50" relative="1" as="geometry">
            <mxPoint x="287.50000000000006" y="594" as="sourcePoint" />
            <mxPoint x="314.50000000000006" y="594" as="targetPoint" />
          </mxGeometry>
        </mxCell>
        <mxCell id="NoFFq3bospTpivUYa4fl-456" value="" style="endArrow=none;dashed=1;html=1;dashPattern=1 3;strokeWidth=2;rounded=0;" parent="NoFFq3bospTpivUYa4fl-513" edge="1">
          <mxGeometry width="50" height="50" relative="1" as="geometry">
            <mxPoint x="295.50000000000006" y="574" as="sourcePoint" />
            <mxPoint x="314.50000000000006" y="574" as="targetPoint" />
          </mxGeometry>
        </mxCell>
        <mxCell id="NoFFq3bospTpivUYa4fl-457" value="" style="endArrow=none;dashed=1;html=1;dashPattern=1 3;strokeWidth=2;rounded=0;" parent="NoFFq3bospTpivUYa4fl-513" edge="1">
          <mxGeometry width="50" height="50" relative="1" as="geometry">
            <mxPoint x="304.50000000000006" y="550" as="sourcePoint" />
            <mxPoint x="315.50000000000006" y="550" as="targetPoint" />
          </mxGeometry>
        </mxCell>
        <mxCell id="NoFFq3bospTpivUYa4fl-458" value="" style="endArrow=none;dashed=1;html=1;dashPattern=1 3;strokeWidth=2;rounded=0;" parent="NoFFq3bospTpivUYa4fl-513" edge="1">
          <mxGeometry width="50" height="50" relative="1" as="geometry">
            <mxPoint x="305.50000000000006" y="468" as="sourcePoint" />
            <mxPoint x="316.50000000000006" y="468" as="targetPoint" />
          </mxGeometry>
        </mxCell>
        <mxCell id="NoFFq3bospTpivUYa4fl-459" value="" style="endArrow=none;dashed=1;html=1;dashPattern=1 3;strokeWidth=2;rounded=0;" parent="NoFFq3bospTpivUYa4fl-513" edge="1">
          <mxGeometry width="50" height="50" relative="1" as="geometry">
            <mxPoint x="264.50000000000006" y="375" as="sourcePoint" />
            <mxPoint x="315.50000000000006" y="375" as="targetPoint" />
          </mxGeometry>
        </mxCell>
        <mxCell id="NoFFq3bospTpivUYa4fl-460" value="" style="endArrow=none;dashed=1;html=1;dashPattern=1 3;strokeWidth=2;rounded=0;" parent="NoFFq3bospTpivUYa4fl-513" edge="1">
          <mxGeometry width="50" height="50" relative="1" as="geometry">
            <mxPoint x="265.50000000000006" y="344" as="sourcePoint" />
            <mxPoint x="316.50000000000006" y="344" as="targetPoint" />
          </mxGeometry>
        </mxCell>
        <mxCell id="NoFFq3bospTpivUYa4fl-463" value="" style="shape=waypoint;sketch=0;size=6;pointerEvents=1;points=[];fillColor=none;resizable=0;rotatable=0;perimeter=centerPerimeter;snapToPoint=1;rotation=90;" parent="NoFFq3bospTpivUYa4fl-513" vertex="1">
          <mxGeometry x="314.50000000000006" y="436" width="20" height="20" as="geometry" />
        </mxCell>
        <mxCell id="NoFFq3bospTpivUYa4fl-464" value="" style="shape=waypoint;sketch=0;size=6;pointerEvents=1;points=[];fillColor=none;resizable=0;rotatable=0;perimeter=centerPerimeter;snapToPoint=1;rotation=90;" parent="NoFFq3bospTpivUYa4fl-513" vertex="1">
          <mxGeometry x="314.50000000000006" y="416" width="20" height="20" as="geometry" />
        </mxCell>
        <mxCell id="NoFFq3bospTpivUYa4fl-465" value="" style="shape=waypoint;sketch=0;size=6;pointerEvents=1;points=[];fillColor=none;resizable=0;rotatable=0;perimeter=centerPerimeter;snapToPoint=1;rotation=90;" parent="NoFFq3bospTpivUYa4fl-513" vertex="1">
          <mxGeometry x="314.50000000000006" y="365" width="20" height="20" as="geometry" />
        </mxCell>
        <mxCell id="NoFFq3bospTpivUYa4fl-503" style="edgeStyle=orthogonalEdgeStyle;rounded=0;orthogonalLoop=1;jettySize=auto;html=1;entryX=0.55;entryY=0.221;entryDx=0;entryDy=0;entryPerimeter=0;endArrow=none;endFill=0;" parent="NoFFq3bospTpivUYa4fl-513" source="NoFFq3bospTpivUYa4fl-498" target="NoFFq3bospTpivUYa4fl-465" edge="1">
          <mxGeometry relative="1" as="geometry">
            <mxPoint x="405.7857142857145" y="388.8571428571429" as="targetPoint" />
            <Array as="points">
              <mxPoint x="473.50000000000006" y="375" />
            </Array>
          </mxGeometry>
        </mxCell>
        <mxCell id="NoFFq3bospTpivUYa4fl-466" value="" style="shape=waypoint;sketch=0;size=6;pointerEvents=1;points=[];fillColor=none;resizable=0;rotatable=0;perimeter=centerPerimeter;snapToPoint=1;rotation=90;" parent="NoFFq3bospTpivUYa4fl-513" vertex="1">
          <mxGeometry x="314.50000000000006" y="335" width="20" height="20" as="geometry" />
        </mxCell>
        <mxCell id="NoFFq3bospTpivUYa4fl-82" value="BELL+" style="text;html=1;strokeColor=none;fillColor=none;align=left;verticalAlign=middle;whiteSpace=wrap;rounded=0;container=0;movable=1;resizable=1;rotatable=1;deletable=1;editable=1;locked=0;connectable=1;rotation=0;" parent="NoFFq3bospTpivUYa4fl-513" vertex="1">
          <mxGeometry x="232.50000000000006" y="416" width="32.57142857142856" height="18.000000000000004" as="geometry" />
        </mxCell>
        <mxCell id="NoFFq3bospTpivUYa4fl-83" value="BELL-" style="text;html=1;strokeColor=none;fillColor=none;align=left;verticalAlign=middle;whiteSpace=wrap;rounded=0;container=0;movable=1;resizable=1;rotatable=1;deletable=1;editable=1;locked=0;connectable=1;rotation=0;" parent="NoFFq3bospTpivUYa4fl-513" vertex="1">
          <mxGeometry x="232.50000000000006" y="437" width="32.57142857142856" height="18.000000000000004" as="geometry" />
        </mxCell>
        <mxCell id="NoFFq3bospTpivUYa4fl-84" value="DOOR_SEN" style="text;html=1;strokeColor=none;fillColor=none;align=left;verticalAlign=middle;whiteSpace=wrap;rounded=0;container=0;movable=1;resizable=1;rotatable=1;deletable=1;editable=1;locked=0;connectable=1;rotation=0;" parent="NoFFq3bospTpivUYa4fl-513" vertex="1">
          <mxGeometry x="232.50000000000006" y="459" width="32.57142857142856" height="18.000000000000004" as="geometry" />
        </mxCell>
        <mxCell id="NoFFq3bospTpivUYa4fl-85" value="GND" style="text;html=1;strokeColor=none;fillColor=none;align=left;verticalAlign=middle;whiteSpace=wrap;rounded=0;container=0;movable=1;resizable=1;rotatable=1;deletable=1;editable=1;locked=0;connectable=1;rotation=0;" parent="NoFFq3bospTpivUYa4fl-513" vertex="1">
          <mxGeometry x="232.50000000000006" y="480" width="32.57142857142856" height="18.000000000000004" as="geometry" />
        </mxCell>
        <mxCell id="NoFFq3bospTpivUYa4fl-86" value="EXIT" style="text;html=1;strokeColor=none;fillColor=none;align=left;verticalAlign=middle;whiteSpace=wrap;rounded=0;container=0;movable=1;resizable=1;rotatable=1;deletable=1;editable=1;locked=0;connectable=1;rotation=0;" parent="NoFFq3bospTpivUYa4fl-513" vertex="1">
          <mxGeometry x="232.50000000000006" y="501" width="32.57142857142856" height="18.000000000000004" as="geometry" />
        </mxCell>
        <mxCell id="NoFFq3bospTpivUYa4fl-87" value="LOCK_NC" style="text;html=1;strokeColor=none;fillColor=none;align=left;verticalAlign=middle;whiteSpace=wrap;rounded=0;container=0;movable=1;resizable=1;rotatable=1;deletable=1;editable=1;locked=0;connectable=1;rotation=0;" parent="NoFFq3bospTpivUYa4fl-513" vertex="1">
          <mxGeometry x="232.50000000000006" y="522" width="32.57142857142856" height="18.000000000000004" as="geometry" />
        </mxCell>
        <mxCell id="NoFFq3bospTpivUYa4fl-88" value="LOCK_COM" style="text;html=1;strokeColor=none;fillColor=none;align=left;verticalAlign=middle;whiteSpace=wrap;rounded=0;container=0;movable=1;resizable=1;rotatable=1;deletable=1;editable=1;locked=0;connectable=1;rotation=0;" parent="NoFFq3bospTpivUYa4fl-513" vertex="1">
          <mxGeometry x="232.50000000000006" y="544" width="32.57142857142856" height="18.000000000000004" as="geometry" />
        </mxCell>
        <mxCell id="NoFFq3bospTpivUYa4fl-89" value="LOCK_NO" style="text;html=1;strokeColor=none;fillColor=none;align=left;verticalAlign=middle;whiteSpace=wrap;rounded=0;container=0;movable=1;resizable=1;rotatable=1;deletable=1;editable=1;locked=0;connectable=1;rotation=0;" parent="NoFFq3bospTpivUYa4fl-513" vertex="1">
          <mxGeometry x="232.50000000000006" y="565" width="32.57142857142856" height="18.000000000000004" as="geometry" />
        </mxCell>
        <mxCell id="NoFFq3bospTpivUYa4fl-101" value="ALARM+" style="text;html=1;strokeColor=none;fillColor=none;align=left;verticalAlign=middle;whiteSpace=wrap;rounded=0;container=0;movable=1;resizable=1;rotatable=1;deletable=1;editable=1;locked=0;connectable=1;rotation=0;" parent="NoFFq3bospTpivUYa4fl-513" vertex="1">
          <mxGeometry x="232.50000000000006" y="586" width="32.57142857142856" height="18.000000000000004" as="geometry" />
        </mxCell>
        <mxCell id="NoFFq3bospTpivUYa4fl-102" value="ALARM-" style="text;html=1;strokeColor=none;fillColor=none;align=left;verticalAlign=middle;whiteSpace=wrap;rounded=0;container=0;movable=1;resizable=1;rotatable=1;deletable=1;editable=1;locked=0;connectable=1;rotation=0;" parent="NoFFq3bospTpivUYa4fl-513" vertex="1">
          <mxGeometry x="232.50000000000006" y="608" width="32.57142857142856" height="18.000000000000004" as="geometry" />
        </mxCell>
        <mxCell id="NoFFq3bospTpivUYa4fl-114" value="" style="ellipse;whiteSpace=wrap;html=1;aspect=fixed;container=0;movable=1;resizable=1;rotatable=1;deletable=1;editable=1;locked=0;connectable=1;rotation=0;" parent="NoFFq3bospTpivUYa4fl-513" vertex="1">
          <mxGeometry x="210.50000000000006" y="369" width="8.415584415584416" height="8.415584415584416" as="geometry" />
        </mxCell>
        <mxCell id="NoFFq3bospTpivUYa4fl-115" value="" style="ellipse;whiteSpace=wrap;html=1;aspect=fixed;container=0;movable=1;resizable=1;rotatable=1;deletable=1;editable=1;locked=0;connectable=1;rotation=0;" parent="NoFFq3bospTpivUYa4fl-513" vertex="1">
          <mxGeometry x="210.50000000000006" y="339" width="8.415584415584416" height="8.415584415584416" as="geometry" />
        </mxCell>
        <mxCell id="NoFFq3bospTpivUYa4fl-116" value="" style="endArrow=none;html=1;rounded=0;movable=1;resizable=1;rotatable=1;deletable=1;editable=1;locked=0;connectable=1;" parent="NoFFq3bospTpivUYa4fl-513" edge="1">
          <mxGeometry width="50" height="50" relative="1" as="geometry">
            <mxPoint x="193.50000000000006" y="333" as="sourcePoint" />
            <mxPoint x="226.50000000000006" y="333" as="targetPoint" />
          </mxGeometry>
        </mxCell>
        <mxCell id="NoFFq3bospTpivUYa4fl-117" value="" style="endArrow=none;html=1;rounded=0;movable=1;resizable=1;rotatable=1;deletable=1;editable=1;locked=0;connectable=1;" parent="NoFFq3bospTpivUYa4fl-513" edge="1">
          <mxGeometry width="50" height="50" relative="1" as="geometry">
            <mxPoint x="193.50000000000006" y="351" as="sourcePoint" />
            <mxPoint x="204.50000000000006" y="351" as="targetPoint" />
          </mxGeometry>
        </mxCell>
        <mxCell id="NoFFq3bospTpivUYa4fl-118" value="" style="endArrow=none;html=1;rounded=0;movable=1;resizable=1;rotatable=1;deletable=1;editable=1;locked=0;connectable=1;" parent="NoFFq3bospTpivUYa4fl-513" edge="1">
          <mxGeometry width="50" height="50" relative="1" as="geometry">
            <mxPoint x="193.50000000000006" y="351" as="sourcePoint" />
            <mxPoint x="193.50000000000006" y="333" as="targetPoint" />
          </mxGeometry>
        </mxCell>
        <mxCell id="NoFFq3bospTpivUYa4fl-119" value="" style="endArrow=none;html=1;rounded=0;movable=1;resizable=1;rotatable=1;deletable=1;editable=1;locked=0;connectable=1;" parent="NoFFq3bospTpivUYa4fl-513" edge="1">
          <mxGeometry width="50" height="50" relative="1" as="geometry">
            <mxPoint x="193.50000000000006" y="387" as="sourcePoint" />
            <mxPoint x="226.50000000000006" y="387" as="targetPoint" />
          </mxGeometry>
        </mxCell>
        <mxCell id="NoFFq3bospTpivUYa4fl-120" value="" style="endArrow=none;html=1;rounded=0;movable=1;resizable=1;rotatable=1;deletable=1;editable=1;locked=0;connectable=1;" parent="NoFFq3bospTpivUYa4fl-513" edge="1">
          <mxGeometry width="50" height="50" relative="1" as="geometry">
            <mxPoint x="193.50000000000006" y="369" as="sourcePoint" />
            <mxPoint x="204.50000000000006" y="369" as="targetPoint" />
          </mxGeometry>
        </mxCell>
        <mxCell id="NoFFq3bospTpivUYa4fl-121" value="" style="endArrow=none;html=1;rounded=0;movable=1;resizable=1;rotatable=1;deletable=1;editable=1;locked=0;connectable=1;" parent="NoFFq3bospTpivUYa4fl-513" edge="1">
          <mxGeometry width="50" height="50" relative="1" as="geometry">
            <mxPoint x="193.50000000000006" y="387" as="sourcePoint" />
            <mxPoint x="193.50000000000006" y="369" as="targetPoint" />
          </mxGeometry>
        </mxCell>
        <mxCell id="NoFFq3bospTpivUYa4fl-122" value="" style="endArrow=none;html=1;rounded=0;movable=1;resizable=1;rotatable=1;deletable=1;editable=1;locked=0;connectable=1;" parent="NoFFq3bospTpivUYa4fl-513" edge="1">
          <mxGeometry width="50" height="50" relative="1" as="geometry">
            <mxPoint x="226.50000000000006" y="387" as="sourcePoint" />
            <mxPoint x="226.50000000000006" y="333" as="targetPoint" />
          </mxGeometry>
        </mxCell>
        <mxCell id="NoFFq3bospTpivUYa4fl-123" value="" style="endArrow=none;html=1;rounded=0;movable=1;resizable=1;rotatable=1;deletable=1;editable=1;locked=0;connectable=1;" parent="NoFFq3bospTpivUYa4fl-513" edge="1">
          <mxGeometry width="50" height="50" relative="1" as="geometry">
            <mxPoint x="204.50000000000006" y="369" as="sourcePoint" />
            <mxPoint x="204.50000000000006" y="351" as="targetPoint" />
          </mxGeometry>
        </mxCell>
        <mxCell id="NoFFq3bospTpivUYa4fl-125" value="+12V" style="text;html=1;strokeColor=none;fillColor=none;align=left;verticalAlign=middle;whiteSpace=wrap;rounded=0;container=0;movable=1;resizable=1;rotatable=1;deletable=1;editable=1;locked=0;connectable=1;rotation=0;" parent="NoFFq3bospTpivUYa4fl-513" vertex="1">
          <mxGeometry x="232.50000000000006" y="336" width="32.57142857142856" height="18.000000000000004" as="geometry" />
        </mxCell>
        <mxCell id="NoFFq3bospTpivUYa4fl-126" value="GND" style="text;html=1;strokeColor=none;fillColor=none;align=left;verticalAlign=middle;whiteSpace=wrap;rounded=0;container=0;movable=1;resizable=1;rotatable=1;deletable=1;editable=1;locked=0;connectable=1;rotation=0;" parent="NoFFq3bospTpivUYa4fl-513" vertex="1">
          <mxGeometry x="232.50000000000006" y="366" width="32.57142857142856" height="18.000000000000004" as="geometry" />
        </mxCell>
        <mxCell id="NoFFq3bospTpivUYa4fl-72" value="" style="ellipse;whiteSpace=wrap;html=1;aspect=fixed;container=0;movable=1;resizable=1;rotatable=1;deletable=1;editable=1;locked=0;connectable=1;rotation=0;" parent="NoFFq3bospTpivUYa4fl-513" vertex="1">
          <mxGeometry x="210.50000000000006" y="546" width="8.415584415584416" height="8.415584415584416" as="geometry" />
        </mxCell>
        <mxCell id="NoFFq3bospTpivUYa4fl-73" value="" style="ellipse;whiteSpace=wrap;html=1;aspect=fixed;container=0;movable=1;resizable=1;rotatable=1;deletable=1;editable=1;locked=0;connectable=1;rotation=0;" parent="NoFFq3bospTpivUYa4fl-513" vertex="1">
          <mxGeometry x="210.50000000000006" y="568" width="8.415584415584416" height="8.415584415584416" as="geometry" />
        </mxCell>
        <mxCell id="NoFFq3bospTpivUYa4fl-74" value="" style="ellipse;whiteSpace=wrap;html=1;aspect=fixed;container=0;movable=1;resizable=1;rotatable=1;deletable=1;editable=1;locked=0;connectable=1;rotation=0;" parent="NoFFq3bospTpivUYa4fl-513" vertex="1">
          <mxGeometry x="210.50000000000006" y="589" width="8.415584415584416" height="8.415584415584416" as="geometry" />
        </mxCell>
        <mxCell id="NoFFq3bospTpivUYa4fl-75" value="" style="ellipse;whiteSpace=wrap;html=1;aspect=fixed;container=0;movable=1;resizable=1;rotatable=1;deletable=1;editable=1;locked=0;connectable=1;rotation=0;" parent="NoFFq3bospTpivUYa4fl-513" vertex="1">
          <mxGeometry x="210.50000000000006" y="610" width="8.415584415584416" height="8.415584415584416" as="geometry" />
        </mxCell>
        <mxCell id="NoFFq3bospTpivUYa4fl-76" value="" style="ellipse;whiteSpace=wrap;html=1;aspect=fixed;container=0;movable=1;resizable=1;rotatable=1;deletable=1;editable=1;locked=0;connectable=1;rotation=0;" parent="NoFFq3bospTpivUYa4fl-513" vertex="1">
          <mxGeometry x="210.50000000000006" y="504" width="8.415584415584416" height="8.415584415584416" as="geometry" />
        </mxCell>
        <mxCell id="NoFFq3bospTpivUYa4fl-77" value="" style="ellipse;whiteSpace=wrap;html=1;aspect=fixed;container=0;movable=1;resizable=1;rotatable=1;deletable=1;editable=1;locked=0;connectable=1;rotation=0;" parent="NoFFq3bospTpivUYa4fl-513" vertex="1">
          <mxGeometry x="210.50000000000006" y="525" width="8.415584415584416" height="8.415584415584416" as="geometry" />
        </mxCell>
        <mxCell id="NoFFq3bospTpivUYa4fl-79" value="" style="ellipse;whiteSpace=wrap;html=1;aspect=fixed;container=0;movable=1;resizable=1;rotatable=1;deletable=1;editable=1;locked=0;connectable=1;rotation=0;" parent="NoFFq3bospTpivUYa4fl-513" vertex="1">
          <mxGeometry x="210.50000000000006" y="483" width="8.415584415584416" height="8.415584415584416" as="geometry" />
        </mxCell>
        <mxCell id="NoFFq3bospTpivUYa4fl-95" value="" style="ellipse;whiteSpace=wrap;html=1;aspect=fixed;container=0;movable=1;resizable=1;rotatable=1;deletable=1;editable=1;locked=0;connectable=1;rotation=0;" parent="NoFFq3bospTpivUYa4fl-513" vertex="1">
          <mxGeometry x="210.50000000000006" y="461" width="8.415584415584416" height="8.415584415584416" as="geometry" />
        </mxCell>
        <mxCell id="NoFFq3bospTpivUYa4fl-97" value="" style="ellipse;whiteSpace=wrap;html=1;aspect=fixed;container=0;movable=1;resizable=1;rotatable=1;deletable=1;editable=1;locked=0;connectable=1;rotation=0;" parent="NoFFq3bospTpivUYa4fl-513" vertex="1">
          <mxGeometry x="210.50000000000006" y="440" width="8.415584415584416" height="8.415584415584416" as="geometry" />
        </mxCell>
        <mxCell id="NoFFq3bospTpivUYa4fl-99" value="" style="ellipse;whiteSpace=wrap;html=1;aspect=fixed;container=0;movable=1;resizable=1;rotatable=1;deletable=1;editable=1;locked=0;connectable=1;rotation=0;" parent="NoFFq3bospTpivUYa4fl-513" vertex="1">
          <mxGeometry x="210.50000000000006" y="419" width="8.415584415584416" height="8.415584415584416" as="geometry" />
        </mxCell>
        <mxCell id="NoFFq3bospTpivUYa4fl-103" value="" style="endArrow=none;html=1;rounded=0;movable=1;resizable=1;rotatable=1;deletable=1;editable=1;locked=0;connectable=1;" parent="NoFFq3bospTpivUYa4fl-513" edge="1">
          <mxGeometry width="50" height="50" relative="1" as="geometry">
            <mxPoint x="226.50000000000006" y="633" as="sourcePoint" />
            <mxPoint x="226.50000000000006" y="411" as="targetPoint" />
          </mxGeometry>
        </mxCell>
        <mxCell id="NoFFq3bospTpivUYa4fl-104" value="" style="endArrow=none;html=1;rounded=0;movable=1;resizable=1;rotatable=1;deletable=1;editable=1;locked=0;connectable=1;" parent="NoFFq3bospTpivUYa4fl-513" edge="1">
          <mxGeometry width="50" height="50" relative="1" as="geometry">
            <mxPoint x="193.50000000000006" y="411" as="sourcePoint" />
            <mxPoint x="226.50000000000006" y="411" as="targetPoint" />
          </mxGeometry>
        </mxCell>
        <mxCell id="NoFFq3bospTpivUYa4fl-106" value="" style="endArrow=none;html=1;rounded=0;movable=1;resizable=1;rotatable=1;deletable=1;editable=1;locked=0;connectable=1;" parent="NoFFq3bospTpivUYa4fl-513" edge="1">
          <mxGeometry width="50" height="50" relative="1" as="geometry">
            <mxPoint x="204.50000000000006" y="429" as="sourcePoint" />
            <mxPoint x="204.50000000000006" y="615" as="targetPoint" />
          </mxGeometry>
        </mxCell>
        <mxCell id="NoFFq3bospTpivUYa4fl-107" value="" style="endArrow=none;html=1;rounded=0;movable=1;resizable=1;rotatable=1;deletable=1;editable=1;locked=0;connectable=1;" parent="NoFFq3bospTpivUYa4fl-513" edge="1">
          <mxGeometry width="50" height="50" relative="1" as="geometry">
            <mxPoint x="193.50000000000006" y="429" as="sourcePoint" />
            <mxPoint x="204.50000000000006" y="429" as="targetPoint" />
          </mxGeometry>
        </mxCell>
        <mxCell id="NoFFq3bospTpivUYa4fl-108" value="" style="endArrow=none;html=1;rounded=0;movable=1;resizable=1;rotatable=1;deletable=1;editable=1;locked=0;connectable=1;" parent="NoFFq3bospTpivUYa4fl-513" edge="1">
          <mxGeometry width="50" height="50" relative="1" as="geometry">
            <mxPoint x="193.50000000000006" y="429" as="sourcePoint" />
            <mxPoint x="193.50000000000006" y="411" as="targetPoint" />
          </mxGeometry>
        </mxCell>
        <mxCell id="NoFFq3bospTpivUYa4fl-109" value="" style="endArrow=none;html=1;rounded=0;movable=1;resizable=1;rotatable=1;deletable=1;editable=1;locked=0;connectable=1;" parent="NoFFq3bospTpivUYa4fl-513" edge="1">
          <mxGeometry width="50" height="50" relative="1" as="geometry">
            <mxPoint x="193.50000000000006" y="633" as="sourcePoint" />
            <mxPoint x="226.50000000000006" y="633" as="targetPoint" />
          </mxGeometry>
        </mxCell>
        <mxCell id="NoFFq3bospTpivUYa4fl-110" value="" style="endArrow=none;html=1;rounded=0;movable=1;resizable=1;rotatable=1;deletable=1;editable=1;locked=0;connectable=1;" parent="NoFFq3bospTpivUYa4fl-513" edge="1">
          <mxGeometry width="50" height="50" relative="1" as="geometry">
            <mxPoint x="193.50000000000006" y="615" as="sourcePoint" />
            <mxPoint x="204.50000000000006" y="615" as="targetPoint" />
          </mxGeometry>
        </mxCell>
        <mxCell id="NoFFq3bospTpivUYa4fl-111" value="" style="endArrow=none;html=1;rounded=0;movable=1;resizable=1;rotatable=1;deletable=1;editable=1;locked=0;connectable=1;" parent="NoFFq3bospTpivUYa4fl-513" edge="1">
          <mxGeometry width="50" height="50" relative="1" as="geometry">
            <mxPoint x="193.50000000000006" y="633" as="sourcePoint" />
            <mxPoint x="193.50000000000006" y="615" as="targetPoint" />
          </mxGeometry>
        </mxCell>
        <mxCell id="NoFFq3bospTpivUYa4fl-187" value="" style="ellipse;whiteSpace=wrap;html=1;aspect=fixed;container=0;movable=1;resizable=1;rotatable=1;deletable=1;editable=1;locked=0;connectable=1;rotation=0;" parent="NoFFq3bospTpivUYa4fl-513" vertex="1">
          <mxGeometry x="117.50000000000006" y="589" width="8.415584415584416" height="8.415584415584416" as="geometry" />
        </mxCell>
        <mxCell id="NoFFq3bospTpivUYa4fl-188" value="" style="ellipse;whiteSpace=wrap;html=1;aspect=fixed;container=0;movable=1;resizable=1;rotatable=1;deletable=1;editable=1;locked=0;connectable=1;rotation=0;" parent="NoFFq3bospTpivUYa4fl-513" vertex="1">
          <mxGeometry x="117.50000000000006" y="610" width="8.415584415584416" height="8.415584415584416" as="geometry" />
        </mxCell>
        <mxCell id="NoFFq3bospTpivUYa4fl-189" value="" style="ellipse;whiteSpace=wrap;html=1;aspect=fixed;container=0;movable=1;resizable=1;rotatable=1;deletable=1;editable=1;locked=0;connectable=1;rotation=0;" parent="NoFFq3bospTpivUYa4fl-513" vertex="1">
          <mxGeometry x="117.50000000000006" y="547" width="8.415584415584416" height="8.415584415584416" as="geometry" />
        </mxCell>
        <mxCell id="NoFFq3bospTpivUYa4fl-190" value="" style="ellipse;whiteSpace=wrap;html=1;aspect=fixed;container=0;movable=1;resizable=1;rotatable=1;deletable=1;editable=1;locked=0;connectable=1;rotation=0;" parent="NoFFq3bospTpivUYa4fl-513" vertex="1">
          <mxGeometry x="117.50000000000006" y="568" width="8.415584415584416" height="8.415584415584416" as="geometry" />
        </mxCell>
        <mxCell id="NoFFq3bospTpivUYa4fl-191" value="" style="endArrow=none;html=1;rounded=0;movable=1;resizable=1;rotatable=1;deletable=1;editable=1;locked=0;connectable=1;" parent="NoFFq3bospTpivUYa4fl-513" edge="1">
          <mxGeometry width="50" height="50" relative="1" as="geometry">
            <mxPoint x="145.50000000000006" y="633" as="sourcePoint" />
            <mxPoint x="112.50000000000006" y="633" as="targetPoint" />
          </mxGeometry>
        </mxCell>
        <mxCell id="NoFFq3bospTpivUYa4fl-192" value="" style="endArrow=none;html=1;rounded=0;movable=1;resizable=1;rotatable=1;deletable=1;editable=1;locked=0;connectable=1;" parent="NoFFq3bospTpivUYa4fl-513" edge="1">
          <mxGeometry width="50" height="50" relative="1" as="geometry">
            <mxPoint x="145.50000000000006" y="615" as="sourcePoint" />
            <mxPoint x="134.50000000000006" y="615" as="targetPoint" />
          </mxGeometry>
        </mxCell>
        <mxCell id="NoFFq3bospTpivUYa4fl-193" value="" style="endArrow=none;html=1;rounded=0;movable=1;resizable=1;rotatable=1;deletable=1;editable=1;locked=0;connectable=1;" parent="NoFFq3bospTpivUYa4fl-513" edge="1">
          <mxGeometry width="50" height="50" relative="1" as="geometry">
            <mxPoint x="145.50000000000006" y="633" as="sourcePoint" />
            <mxPoint x="145.50000000000006" y="615" as="targetPoint" />
          </mxGeometry>
        </mxCell>
        <mxCell id="NoFFq3bospTpivUYa4fl-194" value="" style="endArrow=none;html=1;rounded=0;movable=1;resizable=1;rotatable=1;deletable=1;editable=1;locked=0;connectable=1;" parent="NoFFq3bospTpivUYa4fl-513" edge="1">
          <mxGeometry width="50" height="50" relative="1" as="geometry">
            <mxPoint x="145.50000000000006" y="537" as="sourcePoint" />
            <mxPoint x="112.50000000000006" y="537" as="targetPoint" />
          </mxGeometry>
        </mxCell>
        <mxCell id="NoFFq3bospTpivUYa4fl-195" value="" style="endArrow=none;html=1;rounded=0;movable=1;resizable=1;rotatable=1;deletable=1;editable=1;locked=0;connectable=1;" parent="NoFFq3bospTpivUYa4fl-513" edge="1">
          <mxGeometry width="50" height="50" relative="1" as="geometry">
            <mxPoint x="145.50000000000006" y="555" as="sourcePoint" />
            <mxPoint x="134.50000000000006" y="555" as="targetPoint" />
          </mxGeometry>
        </mxCell>
        <mxCell id="NoFFq3bospTpivUYa4fl-196" value="" style="endArrow=none;html=1;rounded=0;movable=1;resizable=1;rotatable=1;deletable=1;editable=1;locked=0;connectable=1;" parent="NoFFq3bospTpivUYa4fl-513" edge="1">
          <mxGeometry width="50" height="50" relative="1" as="geometry">
            <mxPoint x="145.50000000000006" y="555" as="sourcePoint" />
            <mxPoint x="145.50000000000006" y="537" as="targetPoint" />
          </mxGeometry>
        </mxCell>
        <mxCell id="NoFFq3bospTpivUYa4fl-197" value="" style="endArrow=none;html=1;rounded=0;movable=1;resizable=1;rotatable=1;deletable=1;editable=1;locked=0;connectable=1;" parent="NoFFq3bospTpivUYa4fl-513" edge="1">
          <mxGeometry width="50" height="50" relative="1" as="geometry">
            <mxPoint x="112.50000000000006" y="633" as="sourcePoint" />
            <mxPoint x="112.50000000000006" y="537" as="targetPoint" />
          </mxGeometry>
        </mxCell>
        <mxCell id="NoFFq3bospTpivUYa4fl-198" value="" style="endArrow=none;html=1;rounded=0;movable=1;resizable=1;rotatable=1;deletable=1;editable=1;locked=0;connectable=1;" parent="NoFFq3bospTpivUYa4fl-513" edge="1">
          <mxGeometry width="50" height="50" relative="1" as="geometry">
            <mxPoint x="134.50000000000006" y="615" as="sourcePoint" />
            <mxPoint x="134.50000000000006" y="555" as="targetPoint" />
          </mxGeometry>
        </mxCell>
        <mxCell id="NoFFq3bospTpivUYa4fl-128" value="" style="ellipse;whiteSpace=wrap;html=1;aspect=fixed;container=0;movable=1;resizable=1;rotatable=1;deletable=1;editable=1;locked=0;connectable=1;rotation=0;" parent="NoFFq3bospTpivUYa4fl-513" vertex="1">
          <mxGeometry x="117.50000000000006" y="468" width="8.415584415584416" height="8.415584415584416" as="geometry" />
        </mxCell>
        <mxCell id="NoFFq3bospTpivUYa4fl-129" value="" style="ellipse;whiteSpace=wrap;html=1;aspect=fixed;container=0;movable=1;resizable=1;rotatable=1;deletable=1;editable=1;locked=0;connectable=1;rotation=0;" parent="NoFFq3bospTpivUYa4fl-513" vertex="1">
          <mxGeometry x="117.50000000000006" y="490" width="8.415584415584416" height="8.415584415584416" as="geometry" />
        </mxCell>
        <mxCell id="NoFFq3bospTpivUYa4fl-132" value="" style="ellipse;whiteSpace=wrap;html=1;aspect=fixed;container=0;movable=1;resizable=1;rotatable=1;deletable=1;editable=1;locked=0;connectable=1;rotation=0;" parent="NoFFq3bospTpivUYa4fl-513" vertex="1">
          <mxGeometry x="117.50000000000006" y="426" width="8.415584415584416" height="8.415584415584416" as="geometry" />
        </mxCell>
        <mxCell id="NoFFq3bospTpivUYa4fl-133" value="" style="ellipse;whiteSpace=wrap;html=1;aspect=fixed;container=0;movable=1;resizable=1;rotatable=1;deletable=1;editable=1;locked=0;connectable=1;rotation=0;" parent="NoFFq3bospTpivUYa4fl-513" vertex="1">
          <mxGeometry x="117.50000000000006" y="447" width="8.415584415584416" height="8.415584415584416" as="geometry" />
        </mxCell>
        <mxCell id="NoFFq3bospTpivUYa4fl-134" value="" style="ellipse;whiteSpace=wrap;html=1;aspect=fixed;container=0;movable=1;resizable=1;rotatable=1;deletable=1;editable=1;locked=0;connectable=1;rotation=0;" parent="NoFFq3bospTpivUYa4fl-513" vertex="1">
          <mxGeometry x="117.50000000000006" y="405" width="8.415584415584416" height="8.415584415584416" as="geometry" />
        </mxCell>
        <mxCell id="NoFFq3bospTpivUYa4fl-135" value="" style="ellipse;whiteSpace=wrap;html=1;aspect=fixed;container=0;movable=1;resizable=1;rotatable=1;deletable=1;editable=1;locked=0;connectable=1;rotation=0;" parent="NoFFq3bospTpivUYa4fl-513" vertex="1">
          <mxGeometry x="117.50000000000006" y="383" width="8.415584415584416" height="8.415584415584416" as="geometry" />
        </mxCell>
        <mxCell id="NoFFq3bospTpivUYa4fl-136" value="" style="ellipse;whiteSpace=wrap;html=1;aspect=fixed;container=0;movable=1;resizable=1;rotatable=1;deletable=1;editable=1;locked=0;connectable=1;rotation=0;" parent="NoFFq3bospTpivUYa4fl-513" vertex="1">
          <mxGeometry x="117.50000000000006" y="362" width="8.415584415584416" height="8.415584415584416" as="geometry" />
        </mxCell>
        <mxCell id="NoFFq3bospTpivUYa4fl-137" value="" style="ellipse;whiteSpace=wrap;html=1;aspect=fixed;container=0;movable=1;resizable=1;rotatable=1;deletable=1;editable=1;locked=0;connectable=1;rotation=0;" parent="NoFFq3bospTpivUYa4fl-513" vertex="1">
          <mxGeometry x="117.50000000000006" y="341" width="8.415584415584416" height="8.415584415584416" as="geometry" />
        </mxCell>
        <mxCell id="NoFFq3bospTpivUYa4fl-138" value="" style="endArrow=none;html=1;rounded=0;movable=1;resizable=1;rotatable=1;deletable=1;editable=1;locked=0;connectable=1;" parent="NoFFq3bospTpivUYa4fl-513" edge="1">
          <mxGeometry width="50" height="50" relative="1" as="geometry">
            <mxPoint x="112.50000000000006" y="513" as="sourcePoint" />
            <mxPoint x="112.50000000000006" y="333" as="targetPoint" />
          </mxGeometry>
        </mxCell>
        <mxCell id="NoFFq3bospTpivUYa4fl-139" value="" style="endArrow=none;html=1;rounded=0;movable=1;resizable=1;rotatable=1;deletable=1;editable=1;locked=0;connectable=1;" parent="NoFFq3bospTpivUYa4fl-513" edge="1">
          <mxGeometry width="50" height="50" relative="1" as="geometry">
            <mxPoint x="145.50000000000006" y="333" as="sourcePoint" />
            <mxPoint x="112.50000000000006" y="333" as="targetPoint" />
          </mxGeometry>
        </mxCell>
        <mxCell id="NoFFq3bospTpivUYa4fl-140" value="" style="endArrow=none;html=1;rounded=0;movable=1;resizable=1;rotatable=1;deletable=1;editable=1;locked=0;connectable=1;" parent="NoFFq3bospTpivUYa4fl-513" edge="1">
          <mxGeometry width="50" height="50" relative="1" as="geometry">
            <mxPoint x="134.50000000000006" y="351" as="sourcePoint" />
            <mxPoint x="134.50000000000006" y="495" as="targetPoint" />
          </mxGeometry>
        </mxCell>
        <mxCell id="NoFFq3bospTpivUYa4fl-141" value="" style="endArrow=none;html=1;rounded=0;movable=1;resizable=1;rotatable=1;deletable=1;editable=1;locked=0;connectable=1;" parent="NoFFq3bospTpivUYa4fl-513" edge="1">
          <mxGeometry width="50" height="50" relative="1" as="geometry">
            <mxPoint x="145.50000000000006" y="351" as="sourcePoint" />
            <mxPoint x="134.50000000000006" y="351" as="targetPoint" />
          </mxGeometry>
        </mxCell>
        <mxCell id="NoFFq3bospTpivUYa4fl-142" value="" style="endArrow=none;html=1;rounded=0;movable=1;resizable=1;rotatable=1;deletable=1;editable=1;locked=0;connectable=1;" parent="NoFFq3bospTpivUYa4fl-513" edge="1">
          <mxGeometry width="50" height="50" relative="1" as="geometry">
            <mxPoint x="145.50000000000006" y="351" as="sourcePoint" />
            <mxPoint x="145.50000000000006" y="333" as="targetPoint" />
          </mxGeometry>
        </mxCell>
        <mxCell id="NoFFq3bospTpivUYa4fl-143" value="" style="endArrow=none;html=1;rounded=0;movable=1;resizable=1;rotatable=1;deletable=1;editable=1;locked=0;connectable=1;" parent="NoFFq3bospTpivUYa4fl-513" edge="1">
          <mxGeometry width="50" height="50" relative="1" as="geometry">
            <mxPoint x="144.50000000000006" y="513" as="sourcePoint" />
            <mxPoint x="112.50000000000006" y="513" as="targetPoint" />
          </mxGeometry>
        </mxCell>
        <mxCell id="NoFFq3bospTpivUYa4fl-144" value="" style="endArrow=none;html=1;rounded=0;movable=1;resizable=1;rotatable=1;deletable=1;editable=1;locked=0;connectable=1;" parent="NoFFq3bospTpivUYa4fl-513" edge="1">
          <mxGeometry width="50" height="50" relative="1" as="geometry">
            <mxPoint x="144.50000000000006" y="495" as="sourcePoint" />
            <mxPoint x="134.50000000000006" y="495" as="targetPoint" />
          </mxGeometry>
        </mxCell>
        <mxCell id="NoFFq3bospTpivUYa4fl-145" value="" style="endArrow=none;html=1;rounded=0;movable=1;resizable=1;rotatable=1;deletable=1;editable=1;locked=0;connectable=1;" parent="NoFFq3bospTpivUYa4fl-513" edge="1">
          <mxGeometry width="50" height="50" relative="1" as="geometry">
            <mxPoint x="144.50000000000006" y="513" as="sourcePoint" />
            <mxPoint x="144.50000000000006" y="495" as="targetPoint" />
          </mxGeometry>
        </mxCell>
        <mxCell id="NoFFq3bospTpivUYa4fl-201" value="RJ45_1" style="text;html=1;strokeColor=none;fillColor=none;align=right;verticalAlign=middle;whiteSpace=wrap;rounded=0;container=0;movable=1;resizable=1;rotatable=1;deletable=1;editable=1;locked=0;connectable=1;rotation=0;" parent="NoFFq3bospTpivUYa4fl-513" vertex="1">
          <mxGeometry x="74.50000000000006" y="608" width="32.57142857142856" height="18.000000000000004" as="geometry" />
        </mxCell>
        <mxCell id="NoFFq3bospTpivUYa4fl-202" value="RJ45_2" style="text;html=1;strokeColor=none;fillColor=none;align=right;verticalAlign=middle;whiteSpace=wrap;rounded=0;container=0;movable=1;resizable=1;rotatable=1;deletable=1;editable=1;locked=0;connectable=1;rotation=0;" parent="NoFFq3bospTpivUYa4fl-513" vertex="1">
          <mxGeometry x="74.50000000000006" y="586" width="32.57142857142856" height="18.000000000000004" as="geometry" />
        </mxCell>
        <mxCell id="NoFFq3bospTpivUYa4fl-203" value="RJ45_3" style="text;html=1;strokeColor=none;fillColor=none;align=right;verticalAlign=middle;whiteSpace=wrap;rounded=0;container=0;movable=1;resizable=1;rotatable=1;deletable=1;editable=1;locked=0;connectable=1;rotation=0;" parent="NoFFq3bospTpivUYa4fl-513" vertex="1">
          <mxGeometry x="74.50000000000006" y="565" width="32.57142857142856" height="18.000000000000004" as="geometry" />
        </mxCell>
        <mxCell id="NoFFq3bospTpivUYa4fl-204" value="RJ45_6" style="text;html=1;strokeColor=none;fillColor=none;align=right;verticalAlign=middle;whiteSpace=wrap;rounded=0;container=0;movable=1;resizable=1;rotatable=1;deletable=1;editable=1;locked=0;connectable=1;rotation=0;" parent="NoFFq3bospTpivUYa4fl-513" vertex="1">
          <mxGeometry x="74.50000000000006" y="544" width="32.57142857142856" height="18.000000000000004" as="geometry" />
        </mxCell>
        <mxCell id="NoFFq3bospTpivUYa4fl-205" value="485B" style="text;html=1;strokeColor=none;fillColor=none;align=right;verticalAlign=middle;whiteSpace=wrap;rounded=0;container=0;movable=1;resizable=1;rotatable=1;deletable=1;editable=1;locked=0;connectable=1;rotation=0;" parent="NoFFq3bospTpivUYa4fl-513" vertex="1">
          <mxGeometry x="74.50000000000006" y="487" width="32.57142857142856" height="18.000000000000004" as="geometry" />
        </mxCell>
        <mxCell id="NoFFq3bospTpivUYa4fl-206" value="485A" style="text;html=1;strokeColor=none;fillColor=none;align=right;verticalAlign=middle;whiteSpace=wrap;rounded=0;container=0;movable=1;resizable=1;rotatable=1;deletable=1;editable=1;locked=0;connectable=1;rotation=0;" parent="NoFFq3bospTpivUYa4fl-513" vertex="1">
          <mxGeometry x="74.50000000000006" y="466" width="32.57142857142856" height="18.000000000000004" as="geometry" />
        </mxCell>
        <mxCell id="NoFFq3bospTpivUYa4fl-207" value="GND" style="text;html=1;strokeColor=none;fillColor=none;align=right;verticalAlign=middle;whiteSpace=wrap;rounded=0;container=0;movable=1;resizable=1;rotatable=1;deletable=1;editable=1;locked=0;connectable=1;rotation=0;" parent="NoFFq3bospTpivUYa4fl-513" vertex="1">
          <mxGeometry x="74.50000000000006" y="444" width="32.57142857142856" height="18.000000000000004" as="geometry" />
        </mxCell>
        <mxCell id="NoFFq3bospTpivUYa4fl-208" value="WG_IN1" style="text;html=1;strokeColor=none;fillColor=none;align=right;verticalAlign=middle;whiteSpace=wrap;rounded=0;container=0;movable=1;resizable=1;rotatable=1;deletable=1;editable=1;locked=0;connectable=1;rotation=0;" parent="NoFFq3bospTpivUYa4fl-513" vertex="1">
          <mxGeometry x="74.50000000000006" y="423" width="32.57142857142856" height="18.000000000000004" as="geometry" />
        </mxCell>
        <mxCell id="NoFFq3bospTpivUYa4fl-209" value="WG_IN0" style="text;html=1;strokeColor=none;fillColor=none;align=right;verticalAlign=middle;whiteSpace=wrap;rounded=0;container=0;movable=1;resizable=1;rotatable=1;deletable=1;editable=1;locked=0;connectable=1;rotation=0;" parent="NoFFq3bospTpivUYa4fl-513" vertex="1">
          <mxGeometry x="74.50000000000006" y="402" width="32.57142857142856" height="18.000000000000004" as="geometry" />
        </mxCell>
        <mxCell id="NoFFq3bospTpivUYa4fl-210" value="Fire" style="text;html=1;strokeColor=none;fillColor=none;align=right;verticalAlign=middle;whiteSpace=wrap;rounded=0;container=0;movable=1;resizable=1;rotatable=1;deletable=1;editable=1;locked=0;connectable=1;rotation=0;" parent="NoFFq3bospTpivUYa4fl-513" vertex="1">
          <mxGeometry x="74.50000000000006" y="381" width="32.57142857142856" height="18.000000000000004" as="geometry" />
        </mxCell>
        <mxCell id="NoFFq3bospTpivUYa4fl-211" value="WG_OUT0" style="text;html=1;strokeColor=none;fillColor=none;align=right;verticalAlign=middle;whiteSpace=wrap;rounded=0;container=0;movable=1;resizable=1;rotatable=1;deletable=1;editable=1;locked=0;connectable=1;rotation=0;" parent="NoFFq3bospTpivUYa4fl-513" vertex="1">
          <mxGeometry x="74.50000000000006" y="359" width="32.57142857142856" height="18.000000000000004" as="geometry" />
        </mxCell>
        <mxCell id="NoFFq3bospTpivUYa4fl-212" value="WG_OUT1" style="text;html=1;strokeColor=none;fillColor=none;align=right;verticalAlign=middle;whiteSpace=wrap;rounded=0;container=0;movable=1;resizable=1;rotatable=1;deletable=1;editable=1;locked=0;connectable=1;rotation=0;" parent="NoFFq3bospTpivUYa4fl-513" vertex="1">
          <mxGeometry x="74.50000000000006" y="336" width="32.57142857142856" height="18.000000000000004" as="geometry" />
        </mxCell>
        <mxCell id="NoFFq3bospTpivUYa4fl-482" value="Access Control Device" style="rounded=0;whiteSpace=wrap;html=1;fillColor=none;verticalAlign=bottom;rotation=90;direction=east;horizontal=0;" parent="NoFFq3bospTpivUYa4fl-513" vertex="1">
          <mxGeometry x="6.61" y="328.83" width="350" height="330.78" as="geometry" />
        </mxCell>
        <mxCell id="NoFFq3bospTpivUYa4fl-509" value="" style="shape=waypoint;sketch=0;size=6;pointerEvents=1;points=[];fillColor=none;resizable=0;rotatable=0;perimeter=centerPerimeter;snapToPoint=1;" parent="NoFFq3bospTpivUYa4fl-513" vertex="1">
          <mxGeometry x="372.75000000000006" y="365" width="20" height="20" as="geometry" />
        </mxCell>
        <mxCell id="NoFFq3bospTpivUYa4fl-508" style="edgeStyle=orthogonalEdgeStyle;rounded=0;orthogonalLoop=1;jettySize=auto;html=1;endArrow=none;endFill=0;" parent="NoFFq3bospTpivUYa4fl-513" source="NoFFq3bospTpivUYa4fl-444" target="NoFFq3bospTpivUYa4fl-509" edge="1">
          <mxGeometry relative="1" as="geometry">
            <mxPoint x="379.9705882352942" y="447.82352941176464" as="targetPoint" />
          </mxGeometry>
        </mxCell>
        <mxCell id="NoFFq3bospTpivUYa4fl-467" value="" style="shape=waypoint;sketch=0;size=6;pointerEvents=1;points=[];fillColor=none;resizable=0;rotatable=0;perimeter=centerPerimeter;snapToPoint=1;rotation=90;container=0;" parent="NoFFq3bospTpivUYa4fl-513" vertex="1">
          <mxGeometry x="311.50000000000006" y="786" width="20" height="20" as="geometry" />
        </mxCell>
        <mxCell id="NoFFq3bospTpivUYa4fl-468" value="" style="shape=waypoint;sketch=0;size=6;pointerEvents=1;points=[];fillColor=none;resizable=0;rotatable=0;perimeter=centerPerimeter;snapToPoint=1;rotation=90;container=0;" parent="NoFFq3bospTpivUYa4fl-513" vertex="1">
          <mxGeometry x="311.50000000000006" y="766" width="20" height="20" as="geometry" />
        </mxCell>
        <mxCell id="NoFFq3bospTpivUYa4fl-469" value="" style="endArrow=none;dashed=1;html=1;dashPattern=1 3;strokeWidth=2;rounded=0;" parent="NoFFq3bospTpivUYa4fl-513" edge="1">
          <mxGeometry width="50" height="50" relative="1" as="geometry">
            <mxPoint x="302.50000000000006" y="776" as="sourcePoint" />
            <mxPoint x="313.50000000000006" y="776" as="targetPoint" />
          </mxGeometry>
        </mxCell>
        <mxCell id="NoFFq3bospTpivUYa4fl-390" value="" style="ellipse;whiteSpace=wrap;html=1;aspect=fixed;rotation=0;container=0;" parent="NoFFq3bospTpivUYa4fl-513" vertex="1">
          <mxGeometry x="262.50000000000006" y="768" width="8.470588235294118" height="8.470588235294118" as="geometry" />
        </mxCell>
        <mxCell id="NoFFq3bospTpivUYa4fl-391" value="" style="ellipse;whiteSpace=wrap;html=1;aspect=fixed;rotation=0;container=0;" parent="NoFFq3bospTpivUYa4fl-513" vertex="1">
          <mxGeometry x="262.50000000000006" y="788" width="8.470588235294118" height="8.470588235294118" as="geometry" />
        </mxCell>
        <mxCell id="NoFFq3bospTpivUYa4fl-392" value="" style="endArrow=none;html=1;rounded=0;" parent="NoFFq3bospTpivUYa4fl-513" edge="1">
          <mxGeometry width="50" height="50" relative="1" as="geometry">
            <mxPoint x="260.50000000000006" y="766" as="sourcePoint" />
            <mxPoint x="278.50000000000006" y="766" as="targetPoint" />
          </mxGeometry>
        </mxCell>
        <mxCell id="NoFFq3bospTpivUYa4fl-393" value="" style="endArrow=none;html=1;rounded=0;" parent="NoFFq3bospTpivUYa4fl-513" edge="1">
          <mxGeometry width="50" height="50" relative="1" as="geometry">
            <mxPoint x="260.50000000000006" y="806" as="sourcePoint" />
            <mxPoint x="278.50000000000006" y="806" as="targetPoint" />
          </mxGeometry>
        </mxCell>
        <mxCell id="NoFFq3bospTpivUYa4fl-394" value="" style="endArrow=none;html=1;rounded=0;" parent="NoFFq3bospTpivUYa4fl-513" edge="1">
          <mxGeometry width="50" height="50" relative="1" as="geometry">
            <mxPoint x="260.50000000000006" y="806" as="sourcePoint" />
            <mxPoint x="260.50000000000006" y="766" as="targetPoint" />
          </mxGeometry>
        </mxCell>
        <mxCell id="NoFFq3bospTpivUYa4fl-395" value="" style="endArrow=none;html=1;rounded=0;" parent="NoFFq3bospTpivUYa4fl-513" edge="1">
          <mxGeometry width="50" height="50" relative="1" as="geometry">
            <mxPoint x="278.50000000000006" y="806" as="sourcePoint" />
            <mxPoint x="278.50000000000006" y="766" as="targetPoint" />
          </mxGeometry>
        </mxCell>
        <mxCell id="NoFFq3bospTpivUYa4fl-397" value="NC" style="text;html=1;strokeColor=none;fillColor=none;align=left;verticalAlign=middle;whiteSpace=wrap;rounded=0;rotation=0;container=0;" parent="NoFFq3bospTpivUYa4fl-513" vertex="1">
          <mxGeometry x="280.50000000000006" y="773" width="10.588235294117647" height="6" as="geometry" />
        </mxCell>
        <mxCell id="NoFFq3bospTpivUYa4fl-398" value="COM" style="text;html=1;strokeColor=none;fillColor=none;align=left;verticalAlign=middle;whiteSpace=wrap;rounded=0;rotation=0;container=0;" parent="NoFFq3bospTpivUYa4fl-513" vertex="1">
          <mxGeometry x="280.50000000000006" y="793" width="10.588235294117647" height="6" as="geometry" />
        </mxCell>
        <mxCell id="NoFFq3bospTpivUYa4fl-389" value="Magnetic Lock" style="rounded=0;whiteSpace=wrap;html=1;rotation=0;align=left;fillColor=none;container=0;" parent="NoFFq3bospTpivUYa4fl-513" vertex="1">
          <mxGeometry x="140.50000000000006" y="756" width="195" height="60" as="geometry" />
        </mxCell>
        <mxCell id="NoFFq3bospTpivUYa4fl-512" style="edgeStyle=orthogonalEdgeStyle;rounded=0;orthogonalLoop=1;jettySize=auto;html=1;endArrow=none;endFill=0;" parent="NoFFq3bospTpivUYa4fl-513" source="NoFFq3bospTpivUYa4fl-467" target="NoFFq3bospTpivUYa4fl-427" edge="1">
          <mxGeometry relative="1" as="geometry">
            <Array as="points">
              <mxPoint x="514.5" y="796" />
              <mxPoint x="514.5" y="547" />
            </Array>
          </mxGeometry>
        </mxCell>
        <mxCell id="uT2LzerjGUuRryDSrxKy-7" value="" style="shape=waypoint;sketch=0;fillStyle=solid;size=6;pointerEvents=1;points=[];fillColor=none;resizable=0;rotatable=0;perimeter=centerPerimeter;snapToPoint=1;" vertex="1" parent="NoFFq3bospTpivUYa4fl-513">
          <mxGeometry x="43.50000000000006" y="585" width="20" height="20" as="geometry" />
        </mxCell>
        <mxCell id="uT2LzerjGUuRryDSrxKy-8" value="" style="shape=waypoint;sketch=0;fillStyle=solid;size=6;pointerEvents=1;points=[];fillColor=none;resizable=0;rotatable=0;perimeter=centerPerimeter;snapToPoint=1;" vertex="1" parent="NoFFq3bospTpivUYa4fl-513">
          <mxGeometry x="43.50000000000006" y="606" width="20" height="20" as="geometry" />
        </mxCell>
        <mxCell id="uT2LzerjGUuRryDSrxKy-9" value="" style="shape=waypoint;sketch=0;fillStyle=solid;size=6;pointerEvents=1;points=[];fillColor=none;resizable=0;rotatable=0;perimeter=centerPerimeter;snapToPoint=1;" vertex="1" parent="NoFFq3bospTpivUYa4fl-513">
          <mxGeometry x="43.50000000000006" y="564" width="20" height="20" as="geometry" />
        </mxCell>
        <mxCell id="uT2LzerjGUuRryDSrxKy-10" value="" style="shape=waypoint;sketch=0;fillStyle=solid;size=6;pointerEvents=1;points=[];fillColor=none;resizable=0;rotatable=0;perimeter=centerPerimeter;snapToPoint=1;" vertex="1" parent="NoFFq3bospTpivUYa4fl-513">
          <mxGeometry x="43.50000000000006" y="545" width="20" height="20" as="geometry" />
        </mxCell>
        <mxCell id="uT2LzerjGUuRryDSrxKy-11" style="edgeStyle=orthogonalEdgeStyle;rounded=0;orthogonalLoop=1;jettySize=auto;html=1;endArrow=none;endFill=0;" edge="1" parent="1" source="uT2LzerjGUuRryDSrxKy-10" target="uT2LzerjGUuRryDSrxKy-5">
          <mxGeometry relative="1" as="geometry" />
        </mxCell>
        <mxCell id="uT2LzerjGUuRryDSrxKy-12" style="edgeStyle=orthogonalEdgeStyle;rounded=0;orthogonalLoop=1;jettySize=auto;html=1;entryX=0.464;entryY=0.25;entryDx=0;entryDy=0;entryPerimeter=0;endArrow=none;endFill=0;" edge="1" parent="1" source="uT2LzerjGUuRryDSrxKy-9" target="uT2LzerjGUuRryDSrxKy-4">
          <mxGeometry relative="1" as="geometry" />
        </mxCell>
        <mxCell id="uT2LzerjGUuRryDSrxKy-13" style="edgeStyle=orthogonalEdgeStyle;rounded=0;orthogonalLoop=1;jettySize=auto;html=1;endArrow=none;endFill=0;" edge="1" parent="1" source="uT2LzerjGUuRryDSrxKy-7" target="uT2LzerjGUuRryDSrxKy-3">
          <mxGeometry relative="1" as="geometry" />
        </mxCell>
        <mxCell id="uT2LzerjGUuRryDSrxKy-14" style="edgeStyle=orthogonalEdgeStyle;rounded=0;orthogonalLoop=1;jettySize=auto;html=1;entryX=0.25;entryY=0.507;entryDx=0;entryDy=0;entryPerimeter=0;endArrow=none;endFill=0;" edge="1" parent="1" source="uT2LzerjGUuRryDSrxKy-8" target="uT2LzerjGUuRryDSrxKy-2">
          <mxGeometry relative="1" as="geometry" />
        </mxCell>
        <mxCell id="uT2LzerjGUuRryDSrxKy-16" value="" style="group" vertex="1" connectable="0" parent="1">
          <mxGeometry x="4" y="542" width="130" height="100" as="geometry" />
        </mxCell>
        <mxCell id="uT2LzerjGUuRryDSrxKy-1" value="Ethernet" style="rounded=0;whiteSpace=wrap;html=1;verticalAlign=middle;" vertex="1" parent="uT2LzerjGUuRryDSrxKy-16">
          <mxGeometry width="120" height="100" as="geometry" />
        </mxCell>
        <mxCell id="uT2LzerjGUuRryDSrxKy-2" value="" style="shape=waypoint;sketch=0;fillStyle=solid;size=6;pointerEvents=1;points=[];fillColor=none;resizable=0;rotatable=0;perimeter=centerPerimeter;snapToPoint=1;rotation=-90;" vertex="1" parent="uT2LzerjGUuRryDSrxKy-16">
          <mxGeometry x="110" y="70" width="20" height="20" as="geometry" />
        </mxCell>
        <mxCell id="uT2LzerjGUuRryDSrxKy-3" value="" style="shape=waypoint;sketch=0;fillStyle=solid;size=6;pointerEvents=1;points=[];fillColor=none;resizable=0;rotatable=0;perimeter=centerPerimeter;snapToPoint=1;rotation=-90;" vertex="1" parent="uT2LzerjGUuRryDSrxKy-16">
          <mxGeometry x="110" y="49" width="20" height="20" as="geometry" />
        </mxCell>
        <mxCell id="uT2LzerjGUuRryDSrxKy-4" value="" style="shape=waypoint;sketch=0;fillStyle=solid;size=6;pointerEvents=1;points=[];fillColor=none;resizable=0;rotatable=0;perimeter=centerPerimeter;snapToPoint=1;rotation=-90;" vertex="1" parent="uT2LzerjGUuRryDSrxKy-16">
          <mxGeometry x="110" y="28" width="20" height="20" as="geometry" />
        </mxCell>
        <mxCell id="uT2LzerjGUuRryDSrxKy-5" value="" style="shape=waypoint;sketch=0;fillStyle=solid;size=6;pointerEvents=1;points=[];fillColor=none;resizable=0;rotatable=0;perimeter=centerPerimeter;snapToPoint=1;rotation=-90;" vertex="1" parent="uT2LzerjGUuRryDSrxKy-16">
          <mxGeometry x="110" y="9" width="20" height="20" as="geometry" />
        </mxCell>
        <mxCell id="uT2LzerjGUuRryDSrxKy-19" style="edgeStyle=orthogonalEdgeStyle;rounded=0;orthogonalLoop=1;jettySize=auto;html=1;entryX=0.5;entryY=0;entryDx=0;entryDy=0;endArrow=oval;endFill=1;startArrow=oval;startFill=1;" edge="1" parent="1" source="uT2LzerjGUuRryDSrxKy-17" target="uT2LzerjGUuRryDSrxKy-1">
          <mxGeometry relative="1" as="geometry" />
        </mxCell>
        <mxCell id="uT2LzerjGUuRryDSrxKy-17" value="" style="image;points=[];aspect=fixed;html=1;align=center;shadow=0;dashed=0;image=img/lib/allied_telesis/computer_and_terminals/Server_Desktop.svg;imageBorder=default;" vertex="1" parent="1">
          <mxGeometry x="22.590000000000003" y="341" width="82.83" height="105" as="geometry" />
        </mxCell>
      </root>
    </mxGraphModel>
  </diagram>
</mxfile>
