\relax 
\providecommand\babel@aux[2]{}
\@nameuse{bbl@beforestart}
\catcode `:\active 
\catcode `;\active 
\catcode `!\active 
\catcode `?\active 
\providecommand\hyper@newdestlabel[2]{}
\providecommand\HyField@AuxAddToFields[1]{}
\providecommand\HyField@AuxAddToCoFields[2]{}
\babel@aux{french}{}
\babel@aux{french}{}
\@writefile{toc}{\contentsline {chapter}{Introduction}{2}{chapter*.2}\protected@file@percent }
\@writefile{toc}{\contentsline {chapter}{\numberline {1}Outils}{3}{chapter.1}\protected@file@percent }
\@writefile{lof}{\addvspace {10\p@ }}
\@writefile{lot}{\addvspace {10\p@ }}
\@writefile{toc}{\contentsline {section}{\numberline {1.1}Matériel à disposition pour le projet}{3}{section.1.1}\protected@file@percent }
\newlabel{sec:matfouni}{{1.1}{3}{Matériel à disposition pour le projet}{section.1.1}{}}
\newlabel{1@xvr}{{}{3}}
\newlabel{1@vr}{{}{3}}
\@writefile{toc}{\contentsline {section}{\numberline {1.2}Logiciel fourni avec le matériel}{3}{section.1.2}\protected@file@percent }
\newlabel{sec:logicielFourni}{{1.2}{3}{Logiciel fourni avec le matériel}{section.1.2}{}}
\newlabel{2@xvr}{{}{3}}
\newlabel{2@vr}{{}{3}}
\newlabel{3@xvr}{{}{3}}
\newlabel{3@vr}{{}{3}}
\@writefile{lof}{\contentsline {figure}{\numberline {1.1}{\ignorespaces Photographie du matériel fourni}}{4}{figure.caption.3}\protected@file@percent }
\providecommand*\caption@xref[2]{\@setref\relax\@undefined{#1}}
\newlabel{fig:materiel}{{1.1}{4}{Photographie du matériel fourni}{figure.caption.3}{}}
\@writefile{toc}{\contentsline {section}{\numberline {1.3}Matériel et outils requis}{4}{section.1.3}\protected@file@percent }
\newlabel{4@xvr}{{}{4}}
\newlabel{4@vr}{{}{4}}
\@writefile{lof}{\contentsline {figure}{\numberline {1.2}{\ignorespaces Communications proposées par les logiciels intégrés au matériel}}{5}{figure.caption.4}\protected@file@percent }
\newlabel{fig:communication_materiel_fourni}{{1.2}{5}{Communications proposées par les logiciels intégrés au matériel}{figure.caption.4}{}}
\@writefile{lof}{\contentsline {figure}{\numberline {1.3}{\ignorespaces Capture d'écran de l'IHM à la première connexion}}{5}{figure.caption.5}\protected@file@percent }
\newlabel{fig:ihm_logiciel}{{1.3}{5}{Capture d'écran de l'IHM à la première connexion}{figure.caption.5}{}}
\@writefile{lof}{\contentsline {figure}{\numberline {1.4}{\ignorespaces Représentation des tables de la base de données \textit  {Horostage}}}{5}{figure.caption.6}\protected@file@percent }
\newlabel{fig:bdd}{{1.4}{5}{Représentation des tables de la base de données \textit {Horostage}}{figure.caption.6}{}}
\@writefile{toc}{\contentsline {chapter}{\numberline {2}Problématiques générales}{6}{chapter.2}\protected@file@percent }
\@writefile{lof}{\addvspace {10\p@ }}
\@writefile{lot}{\addvspace {10\p@ }}
\@writefile{toc}{\contentsline {section}{\numberline {2.1}Incompatibilité de la commande d'ouverture de porte et de la commande de pointage}{6}{section.2.1}\protected@file@percent }
\newlabel{sec:commandesicompatibles}{{2.1}{6}{Incompatibilité de la commande d'ouverture de porte et de la commande de pointage}{section.2.1}{}}
\@writefile{lof}{\contentsline {figure}{\numberline {2.1}{\ignorespaces Croisement des cas possibles pour une installation dans notre cas d'utilisation}}{6}{figure.caption.7}\protected@file@percent }
\newlabel{fig:croisement}{{2.1}{6}{Croisement des cas possibles pour une installation dans notre cas d'utilisation}{figure.caption.7}{}}
\citation{juels2006rfid}
\citation{thornton2006rfid}
\@writefile{toc}{\contentsline {section}{\numberline {2.2}Optimisations pour amenuiser l'utilisation de la bande passante et le coût énergétique}{7}{section.2.2}\protected@file@percent }
\@writefile{lof}{\contentsline {figure}{\numberline {2.2}{\ignorespaces Schéma de l'ensemble des communications et de l'ensemble des logiciels utilisés}}{7}{figure.caption.8}\protected@file@percent }
\newlabel{fig:optimisation}{{2.2}{7}{Schéma de l'ensemble des communications et de l'ensemble des logiciels utilisés}{figure.caption.8}{}}
\citation{wang2010analysis}
\@writefile{toc}{\contentsline {section}{\numberline {2.3}Sécurisation des protocoles}{8}{section.2.3}\protected@file@percent }
\newlabel{sec:securite}{{2.3}{8}{Sécurisation des protocoles}{section.2.3}{}}
\newlabel{5@xvr}{{}{8}}
\newlabel{5@vr}{{}{8}}
\newlabel{6@xvr}{{}{8}}
\newlabel{6@vr}{{}{8}}
\@writefile{lof}{\contentsline {figure}{\numberline {2.3}{\ignorespaces Tableau des types de puces \textit  {RFID}}}{8}{figure.caption.9}\protected@file@percent }
\newlabel{fig:rfidd}{{2.3}{8}{Tableau des types de puces \textit {RFID}}{figure.caption.9}{}}
\@writefile{lof}{\contentsline {figure}{\numberline {2.4}{\ignorespaces Tableau des modes de fréquence des puces \textit  {RFID}}}{8}{figure.caption.10}\protected@file@percent }
\newlabel{fig:rfidd2}{{2.4}{8}{Tableau des modes de fréquence des puces \textit {RFID}}{figure.caption.10}{}}
\@writefile{toc}{\contentsline {section}{\numberline {2.4}Des paquets inconnus}{9}{section.2.4}\protected@file@percent }
\@writefile{toc}{\contentsline {chapter}{\numberline {3}Première version du projet: Système de pointage pour les stagiaires}{10}{chapter.3}\protected@file@percent }
\@writefile{lof}{\addvspace {10\p@ }}
\@writefile{lot}{\addvspace {10\p@ }}
\newlabel{chap:v1}{{3}{10}{Première version du projet: Système de pointage pour les stagiaires}{chapter.3}{}}
\@writefile{toc}{\contentsline {section}{\numberline {3.1}Description}{10}{section.3.1}\protected@file@percent }
\newlabel{7@xvr}{{}{10}}
\newlabel{7@vr}{{}{10}}
\@writefile{toc}{\contentsline {section}{\numberline {3.2}Mise en place}{10}{section.3.2}\protected@file@percent }
\newlabel{sec:mepv1}{{3.2}{10}{Mise en place}{section.3.2}{}}
\newlabel{8@xvr}{{}{10}}
\newlabel{8@vr}{{}{10}}
\@writefile{lof}{\contentsline {figure}{\numberline {3.1}{\ignorespaces Schéma du câblage de la version 1 du projet}}{10}{figure.caption.11}\protected@file@percent }
\newlabel{fig:v1cablage}{{3.1}{10}{Schéma du câblage de la version 1 du projet}{figure.caption.11}{}}
\@writefile{lof}{\contentsline {figure}{\numberline {3.2}{\ignorespaces Diagramme de séquence de la solution comprenant deux bases de données}}{11}{figure.caption.12}\protected@file@percent }
\newlabel{fig:v1sequencedeuxBDD}{{3.2}{11}{Diagramme de séquence de la solution comprenant deux bases de données}{figure.caption.12}{}}
\@writefile{lof}{\contentsline {figure}{\numberline {3.3}{\ignorespaces Schema d'envoi des données du lecteur à la base de données}}{11}{figure.caption.13}\protected@file@percent }
\newlabel{fig:figv1communication}{{3.3}{11}{Schema d'envoi des données du lecteur à la base de données}{figure.caption.13}{}}
\@writefile{lof}{\contentsline {figure}{\numberline {3.4}{\ignorespaces Shéma du fonctionnement de la deuxième solution comparéé à la première}}{12}{figure.caption.14}\protected@file@percent }
\newlabel{fig:comparison}{{3.4}{12}{Shéma du fonctionnement de la deuxième solution comparéé à la première}{figure.caption.14}{}}
\newlabel{sec:amelpossv1}{{3.2}{12}{Mise en place}{figure.caption.14}{}}
\@writefile{toc}{\contentsline {chapter}{\numberline {4}Deuxième version du projet: Système d'ouverture des portes pour les stagiaires}{13}{chapter.4}\protected@file@percent }
\@writefile{lof}{\addvspace {10\p@ }}
\@writefile{lot}{\addvspace {10\p@ }}
\newlabel{chap:v2}{{4}{13}{Deuxième version du projet: Système d'ouverture des portes pour les stagiaires}{chapter.4}{}}
\@writefile{toc}{\contentsline {section}{\numberline {4.1}Description}{13}{section.4.1}\protected@file@percent }
\@writefile{toc}{\contentsline {section}{\numberline {4.2}Mise en place}{13}{section.4.2}\protected@file@percent }
\newlabel{9@xvr}{{}{13}}
\newlabel{9@vr}{{}{13}}
\@writefile{lof}{\contentsline {figure}{\numberline {4.1}{\ignorespaces Schéma du câblage de la version 2 du projet}}{14}{figure.caption.15}\protected@file@percent }
\newlabel{fig:v2cablage}{{4.1}{14}{Schéma du câblage de la version 2 du projet}{figure.caption.15}{}}
\bibstyle{ieeetr}
\bibdata{citations.bib}
\@writefile{toc}{\contentsline {chapter}{Conclusion}{15}{chapter*.16}\protected@file@percent }
\bibcite{juels2006rfid}{1}
\bibcite{thornton2006rfid}{2}
\bibcite{wang2010analysis}{3}
\@writefile{toc}{\contentsline {chapter}{Bibliographie}{16}{chapter*.17}\protected@file@percent }
\gdef \@abspage@last{17}
